{
    "pageNo": 1,
    "itemsPerPage": 5,
    "totalCount": 102,
    "offset": 0,
    "limit": 5,
    "lastPage": 21,
    "hasNext": true,
    "hasPrev": false,
    "pages": [
        {
            "id": 175,
            "vendor_id": 13,
            "vendorName": "mimm123",
            "name": "MockProductForTest",
            "description": "사줘ㅠㅠㅠㅠㅠㅠㅠㅠㅠㅠㅠㅠㅠ",
            "thumbnail": "https://s3.ap-northeast-2.amazonaws.com/media.yagom-academy.kr/training-resources/13/20221109/a7b21893606a11eda917d10cd0dd5a16_thumb.jpeg",
            "currency": "KRW",
            "price": 6.0E7,
            "bargain_price": 4.2E7,
            "discounted_price": 1.8E7,
            "stock": 1,
            "created_at": "2022-11-09T00:00:00",
            "issued_at": "2022-11-09T00:00:00"
        },
        {
            "id": 167,
            "vendor_id": 29,
            "vendorName": "wongbing",
            "name": "꽃이다",
            "description": "여기에 내용을 입력해주세요.",
            "thumbnail": "https://s3.ap-northeast-2.amazonaws.com/media.yagom-academy.kr/training-resources/29/20221108/11dbfc0b5f2d11eda9170fd4d895a985_thumb.png",
            "currency": "KRW",
            "price": 5000.0,
            "bargain_price": 4900.0,
            "discounted_price": 100.0,
            "stock": 11,
            "created_at": "2022-11-08T00:00:00",
            "issued_at": "2022-11-08T00:00:00"
        },
        {
            "id": 165,
            "vendor_id": 12,
            "vendorName": "judy123",
            "name": "Plz",
            "description": "ㄴㄴ",
            "thumbnail": "https://s3.ap-northeast-2.amazonaws.com/media.yagom-academy.kr/training-resources/12/20221107/e6bcf6245ead11eda917bde1dbcaf438_thumb.jpg",
            "currency": "KRW",
            "price": 123.0,
            "bargain_price": 123.0,
            "discounted_price": 0.0,
            "stock": 0,
            "created_at": "2022-11-07T00:00:00",
            "issued_at": "2022-11-07T00:00:00"
        },
        {
            "id": 164,
            "vendor_id": 12,
            "vendorName": "judy123",
            "name": "나무",
            "description": "퓨ㅠ",
            "thumbnail": "https://s3.ap-northeast-2.amazonaws.com/media.yagom-academy.kr/training-resources/12/20221107/61af39715ead11eda9178b1877eee0f0_thumb.jpg",
            "currency": "KRW",
            "price": 123.0,
            "bargain_price": 123.0,
            "discounted_price": 0.0,
            "stock": 0,
            "created_at": "2022-11-07T00:00:00",
            "issued_at": "2022-11-07T00:00:00"
        },
        {
            "id": 156,
            "vendor_id": 15,
            "vendorName": "red123",
            "name": "개구리",
            "description": "개굴개굴 개구리 개굴",
            "thumbnail": "https://s3.ap-northeast-2.amazonaws.com/media.yagom-academy.kr/training-resources/15/20221107/8ede52395e8111eda917df21ff10ff14_thumb",
            "currency": "KRW",
            "price": 100.0,
            "bargain_price": 90.0,
            "discounted_price": 10.0,
            "stock": 1,
            "created_at": "2022-11-07T00:00:00",
            "issued_at": "2022-11-07T00:00:00"
        }
    ]
}
